{
	"development":
	{
		"caFileName": "tripletower_ca.crt",

		"hanoi_7zip":
		{

		},

		"hanoi_apache":
		{
			"privateKeyPath": "C:/tripletower-stack/tripletower-sdk/etc/ssl/private/tripletower.localhost.key",
			"certificatePath": "C:/tripletower-stack/tripletower-sdk/etc/ssl/certs/tripletower.localhost.crt",
			"caCertificatePath": "C:/tripletower-stack/tripletower-sdk/etc/ssl/certs/tripletower_ca.crt",
			"defaultApplicationPath": "servicetower"
		},

		"hanoi_apache_access_compat":
		{

		},

		"hanoi_apache_actions":
		{

		},

		"hanoi_apache_alias":
		{

		},

		"hanoi_apache_allowmethods":
		{

		},

		"hanoi_apache_asis":
		{

		},

		"hanoi_apache_authn_file":
		{

		},

		"hanoi_apache_authz_core":
		{

		},

		"hanoi_apache_authn_core":
		{

		},

		"hanoi_apache_authz_user":
		{

		},

		"hanoi_apache_autoindex":
		{

		},

		"hanoi_apache_deflate":
		{

		},

		"hanoi_apache_dir":
		{

		},

		"hanoi_apache_env":
		{

		},

		"hanoi_apache_expires":
		{

		},

		"hanoi_apache_filter":
		{

		},

		"hanoi_apache_headers":
		{

		},

		"hanoi_apache_http2":
		{

		},

		"hanoi_apache_include":
		{

		},

		"hanoi_apache_isapi":
		{

		},

		"hanoi_apache_log_config":
		{

		},

		"hanoi_apache_logio":
		{

		},

		"hanoi_apache_mime":
		{

		},

		"hanoi_apache_php":
		{

		},

		"hanoi_apache_rewrite":
		{

		},

		"hanoi_apache_setenvif":
		{

		},

		"hanoi_apache_socache_shmcb":
		{

		},

		"hanoi_apache_ssl":
		{

		},

		"hanoi_dotnet4.7":
		{

		},

		"hanoi_firefox":
		{

		},

		"hanoi_git":
		{
			"sslverify": false
		},

		"hanoi_heidisql":
		{

		},

		"hanoi_openjdk11":
		{

		},

		"hanoi_mariadb":
		{
			"privateKeyPath": "C:/tripletower-stack/tripletower-sdk/etc/ssl/private/tripletower.localhost.key",
			"certificatePath": "C:/tripletower-stack/tripletower-sdk/etc/ssl/certs/tripletower.localhost.crt",
			"caCertificatePath": "C:/tripletower-stack/tripletower-sdk/etc/ssl/certs/tripletower_ca.crt",

			"backup": false,
			"serverName": "tripletower.localhost"
		},

		"hanoi_netbeans":
		{

		},

		"hanoi_notepadplusplus":
		{

		},

		"hanoi_php":
		{

		},

		"hanoi_php_com_dotnet":
		{

		},

		"hanoi_php_curl":
		{

		},

		"hanoi_php_exif":
		{

		},

		"hanoi_php_fileinfo":
		{

		},

		"hanoi_php_gender":
		{

		},

		"hanoi_php_ldap":
		{

		},

		"hanoi_php_mbstring":
		{

		},

		"hanoi_php_openssl":
		{

		},

		"hanoi_php_pdo_mysql":
		{

		},

		"hanoi_php_pdo_oci":
		{

		},

		"hanoi_php_soap":
		{

		},

		"hanoi_php_ssh2":
		{

		},

		"hanoi_php_win32service":
		{

		},

		"hanoi_php_xdebug":
		{

		},

		"hanoi_sendmail":
		{

		},

		"hanoi_tortoisegit":
		{

		},

		"hanoi_tripletower":
		{
			"privateKeyPath": "C:/tripletower-stack/tripletower-sdk/etc/ssl/private/tripletower.localhost.key",
			"certificatePath": "C:/tripletower-stack/tripletower-sdk/etc/ssl/certs/tripletower.localhost.crt",

			"authSystems":
			{
				"tripleTowerAS":
				{
					"ascName": "TripleTowerSDK\\AuthSystem\\TripleTowerASC",
					"hostName": "",
					"userName": "",
					"password": ""
				}
			}
		},

		"hanoi_tripletowersdk":
		{

		},

		"hanoi_vcredist2013":
		{

		},

		"hanoi_vcredist2017":
		{

		},

		"hanoi_wapp_towercore":
		{

		},

		"hanoi_wapp_webtra.about":
		{

		},

		"hanoi_wapp_webtra.docs":
		{

		},

		"hanoi_wapp_webtra.softwaredelivery":
		{

		}
	},

	"staging":
	{

	},

	"production":
	{

	}
}